<svg width="14" height="17" viewBox="0 0 14 17" fill="none" xmlns="http://www.w3.org/2000/svg">
<path d="M1 4H2.10948M2.10948 4H13M2.10948 4V14.5C2.10948 14.8978 2.24995 15.2794 2.5 15.5607C2.75005 15.842 3.08919 16 3.44281 16H10.6667C11.0203 16 11.3594 15.842 11.6095 15.5607C11.8595 15.2794 12 14.8978 12 14.5V4H2.10948ZM4.33333 4V2.5C4.33333 2.10218 4.47381 1.72064 4.72386 1.43934C4.97391 1.15804 5.31304 1 5.66667 1H8.33333C8.68696 1 9.02609 1.15804 9.27614 1.43934C9.52619 1.72064 9.66667 2.10218 9.66667 2.5V4M5 7.5V12M9 7.5V12" stroke="#222222" stroke-width="2" stroke-linecap="round" stroke-linejoin="round"/>
</svg>
